…
``` r
graph=unsolved_homicides%>%
  mutate(
    prop_unsolved_df = 
      map2(.x = unsolved, .y = total, ~prop_unsolved(x = .x, n = .y))
  ) %>% 
  unnest(prop_unsolved_df)

graph
```

    ## # A tibble: 51 × 6
    ##    city_state      unsolved total estimate conf.low conf.high
    ##    <chr>              <int> <int>    <dbl>    <dbl>     <dbl>
    ##  1 Albuquerque, NM      326   378    0.862    0.823     0.895
    ##  2 Atlanta, GA          915   973    0.940    0.923     0.954
    ##  3 Baltimore, MD       2675  2827    0.946    0.937     0.954
    ##  4 Baton Rouge, LA      408   424    0.962    0.938     0.978
    ##  5 Birmingham, AL       736   800    0.92     0.898     0.937
    ##  6 Boston, MA           614   614    1        0.992     1    
    ##  7 Buffalo, NY          513   521    0.985    0.969     0.993
    ##  8 Charlotte, NC        643   687    0.936    0.914     0.953
    ##  9 Chicago, IL         5148  5535    0.930    0.923     0.937
    ## 10 Cincinnati, OH       645   694    0.929    0.907     0.947
    ## # … with 41 more rows
…
